Homework_7
…
getSymbols('^MXX', from='2020-02-01', to='2025-10-03', env=datos)

[1] "MXX"

precio_m <- datos[['MXX']][,6]
precio_m <- to.monthly(precio_m)[,4]
r_m <- monthlyReturn(precio_m)

Tasa libre de riesgo

r_f <- read_xlsx('Cetes.xlsx')
r_f

# A tibble: 302 × 2
   Fecha               SF43936
   <dttm>              <chr>  
 1 2020-01-02 00:00:00 7.25   
 2 2020-01-09 00:00:00 7.26   
 3 2020-01-16 00:00:00 7      
 4 2020-01-23 00:00:00 7.05   
 5 2020-01-30 00:00:00 7.04   
 6 2020-02-06 00:00:00 6.99   
 7 2020-02-13 00:00:00 7      
 8 2020-02-20 00:00:00 6.95   
 9 2020-02-27 00:00:00 6.91   
10 2020-03-05 00:00:00 6.7    
# ℹ 292 more rows
…
